{
  "indexes": [
    {
      "collectionGroup": "messages",
      "queryScope": "COLLECTION",
      "fields": [
        {
          "fieldPath": "groupId",
          "order": "ASCENDING"
        },
        {
          "fieldPath": "createdAt",
          "order": "DESCENDING"
        }
      ]
    },
    {
      "collectionGroup": "messages",
      "queryScope": "COLLECTION",
      "fields": [
        {
          "fieldPath": "groupId",
          "order": "ASCENDING"
        },
        {
          "fieldPath": "receiver",
          "order": "ASCENDING"
        },
        {
          "fieldPath": "createdAt",
          "order": "DESCENDING"
        }
      ]
    },
    {
      "collectionGroup": "messages",
      "queryScope": "COLLECTION",
      "fields": [
        {
          "fieldPath": "groupId",
          "order": "ASCENDING"
        },
        {
          "fieldPath": "sender",
          "order": "ASCENDING"
        },
        {
          "fieldPath": "createdAt",
          "order": "DESCENDING"
        }
      ]
    },
    {
      "collectionGroup": "messages",
      "queryScope": "COLLECTION",
      "fields": [
        {
          "fieldPath": "receiver",
          "order": "ASCENDING"
        },
        {
          "fieldPath": "groupId",
          "order": "DESCENDING"
        }
      ]
    },
    {
      "collectionGroup": "messages",
      "queryScope": "COLLECTION",
      "fields": [
        {
          "fieldPath": "receiver",
          "order": "ASCENDING"
        },
        {
          "fieldPath": "sender",
          "order": "ASCENDING"
        },
        {
          "fieldPath": "createdAt",
          "order": "ASCENDING"
        }
      ]
    },
    {
      "collectionGroup": "messages",
      "queryScope": "COLLECTION",
      "fields": [
        {
          "fieldPath": "receiver",
          "order": "ASCENDING"
        },
        {
          "fieldPath": "sender",
          "order": "ASCENDING"
        },
        {
          "fieldPath": "createdAt",
          "order": "DESCENDING"
        }
      ]
    },
    {
      "collectionGroup": "messages",
      "queryScope": "COLLECTION",
      "fields": [
        {
          "fieldPath": "sender",
          "order": "ASCENDING"
        },
        {
          "fieldPath": "groupId",
          "order": "DESCENDING"
        }
      ]
    },
    {
      "collectionGroup": "messages-dev",
      "queryScope": "COLLECTION",
      "fields": [
        {
          "fieldPath": "groupId",
          "order": "ASCENDING"
        },
        {
          "fieldPath": "createdAt",
          "order": "DESCENDING"
        }
      ]
    },
    {
      "collectionGroup": "messages-dev",
      "queryScope": "COLLECTION",
      "fields": [
        {
          "fieldPath": "groupId",
          "order": "ASCENDING"
        },
        {
          "fieldPath": "isRead",
          "order": "ASCENDING"
        },
        {
          "fieldPath": "createdAt",
          "order": "DESCENDING"
        }
      ]
    },
    {
      "collectionGroup": "profiles",
      "queryScope": "COLLECTION",
      "fields": [
        {
          "fieldPath": "is_admin",
          "order": "ASCENDING"
        },
        {
          "fieldPath": "is_blocked",
          "order": "ASCENDING"
        },
        {
          "fieldPath": "id",
          "order": "ASCENDING"
        }
      ]
    },
    {
      "collectionGroup": "profiles",
      "queryScope": "COLLECTION",
      "fields": [
        {
          "fieldPath": "is_admin",
          "order": "ASCENDING"
        },
        {
          "fieldPath": "is_blocked",
          "order": "ASCENDING"
        },
        {
          "fieldPath": "is_completed",
          "order": "ASCENDING"
        },
        {
          "fieldPath": "id",
          "order": "ASCENDING"
        }
      ]
    },
    {
      "collectionGroup": "profiles-dev",
      "queryScope": "COLLECTION",
      "fields": [
        {
          "fieldPath": "is_accepted_terms_and_conditions",
          "order": "ASCENDING"
        },
        {
          "fieldPath": "is_admin",
          "order": "ASCENDING"
        },
        {
          "fieldPath": "is_blocked",
          "order": "ASCENDING"
        },
        {
          "fieldPath": "is_completed",
          "order": "ASCENDING"
        },
        {
          "fieldPath": "id",
          "order": "ASCENDING"
        }
      ]
    },
    {
      "collectionGroup": "profiles-dev",
      "queryScope": "COLLECTION",
      "fields": [
        {
          "fieldPath": "is_admin",
          "order": "ASCENDING"
        },
        {
          "fieldPath": "is_blocked",
          "order": "ASCENDING"
        },
        {
          "fieldPath": "id",
          "order": "ASCENDING"
        }
      ]
    },
    {
      "collectionGroup": "profiles-dev",
      "queryScope": "COLLECTION",
      "fields": [
        {
          "fieldPath": "is_admin",
          "order": "ASCENDING"
        },
        {
          "fieldPath": "is_blocked",
          "order": "ASCENDING"
        },
        {
          "fieldPath": "is_completed",
          "order": "ASCENDING"
        },
        {
          "fieldPath": "id",
          "order": "ASCENDING"
        }
      ]
    },
    {
      "collectionGroup": "stories",
      "queryScope": "COLLECTION",
      "fields": [
        {
          "fieldPath": "status",
          "order": "ASCENDING"
        },
        {
          "fieldPath": "created_at",
          "order": "DESCENDING"
        }
      ]
    },
    {
      "collectionGroup": "stories",
      "queryScope": "COLLECTION",
      "fields": [
        {
          "fieldPath": "status",
          "order": "ASCENDING"
        },
        {
          "fieldPath": "updated_at",
          "order": "DESCENDING"
        }
      ]
    },
    {
      "collectionGroup": "stories-dev",
      "queryScope": "COLLECTION",
      "fields": [
        {
          "fieldPath": "status",
          "order": "ASCENDING"
        },
        {
          "fieldPath": "created_at",
          "order": "DESCENDING"
        }
      ]
    },
    {
      "collectionGroup": "stories-dev",
      "queryScope": "COLLECTION",
      "fields": [
        {
          "fieldPath": "status",
          "order": "ASCENDING"
        },
        {
          "fieldPath": "updated_at",
          "order": "DESCENDING"
        }
      ]
    }
  ],
  "fieldOverrides": []
}
